{
	"Name": "specialbuilders",
	"Data": {
		"Action": "createunits",
		"DefaultParameter": 4,
		"isNumeric": true,
		"Templates": [
			"units/special_road_builder",
			"units/special_tree_builder",
			"units/special_water_builder",
			"units/special_ground_builder"
		]
	}
} 
