{
    "name": "special-builders",
    "version": "0.0.2",
    "label": "Special Builders",
    "description": "Lets you build trees, roads, water, and more. Use specialbuilders in chat to create special builders",
    "dependencies": ["0ad>=0.0.23"]
}
