


{
	"Code":"specialbuilders",
	"Culture":"specialbuilders",
	"Name":"Special Builders",
	"Emblem":"session/portraits/emblems/emblem_athenians.png",
	"History":"TBD",
	"Music":[
			{"File":"Harvest_Festival.ogg", "Type":"peace"}
		],
	"Factions":
	[
		
	],
	"CivBonuses":
	[
		
	],
	"TeamBonuses":
	[
		
	],
	"Structures":
	[
		
	],
	"WallSets":
	[
		"other/wallset_palisade",
		"structures/athen_wallset_stone"
	],
	"StartEntities":
	[
		{
			"Template": "units/special_road_builder",
			"Count": 4
		}
	],
	"Formations":
	[
		"special/formations/null"
	],
	"AINames":
	[
		"Piwi"
	],
	"SkirmishReplacements":
	{
		
	},
	"SelectableInGameSetup": false
}
